low card,high card,Pr(safe side suit)
2,3,1
2,4,1
2,5,1
2,6,1
2,7,1
2,8,0.9996
2,9,0.9815
2,10,0.9386
2,11,0.8453
2,12,0.6766
2,13,0.4317
2,14,0.0435
3,4,1
3,5,1
3,6,0.9998
3,7,0.9997
3,8,0.9924
3,9,0.9719
3,10,0.9249
3,11,0.8305
3,12,0.6768
3,13,0.4329
3,14,0.0457
4,5,1
4,6,0.9997
4,7,0.9993
4,8,0.9846
4,9,0.9609
4,10,0.9154
4,11,0.826
4,12,0.6763
4,13,0.4211
4,14,0.0479
5,6,0.992
5,7,0.9934
5,8,0.9718
5,9,0.9382
5,10,0.8854
5,11,0.795
5,12,0.6504
5,13,0.4081
5,14,0.0392
6,7,0.9769
6,8,0.9514
6,9,0.9056
6,10,0.8568
6,11,0.7665
6,12,0.6324
6,13,0.397
6,14,0.0334
7,8,0.9209
7,9,0.862
7,10,0.8033
7,11,0.7157
7,12,0.5861
7,13,0.3641
7,14,0.0306
8,9,0.7964
8,10,0.7266
8,11,0.6528
8,12,0.5273
8,13,0.3381
8,14,0.0246
9,10,0.6153
9,11,0.5533
9,12,0.4574
9,13,0.2984
9,14,0.0222
10,11,0.3887
10,12,0.342
10,13,0.2383
10,14,0.015
11,12,0.1727
11,13,0.1472
11,14,0.013
12,13,0.0079
12,14,0.0086
13,14,0.0047
