low card,high card,Pr(safe side suit)
2,3,1
2,4,1
2,5,0.9999
2,6,0.9998
2,7,0.962
2,8,0.9184
2,9,0.7508
2,10,0.5376
2,11,0.3524
2,12,0.1891
2,13,0.0803
2,14,0
3,4,1
3,5,1
3,6,0.9995
3,7,0.9628
3,8,0.9233
3,9,0.749
3,10,0.5305
3,11,0.3517
3,12,0.1894
3,13,0.0776
3,14,0
4,5,0.9916
4,6,0.9918
4,7,0.9622
4,8,0.9216
4,9,0.75
4,10,0.5454
4,11,0.3486
4,12,0.1936
4,13,0.0814
4,14,0
5,6,0.7466
5,7,0.7101
5,8,0.692
5,9,0.5869
5,10,0.4315
5,11,0.2774
5,12,0.1581
5,13,0.0696
5,14,0
6,7,0.4755
6,8,0.46
6,9,0.405
6,10,0.3268
6,11,0.2186
6,12,0.1227
6,13,0.056
6,14,0
7,8,0.288
7,9,0.2726
7,10,0.2361
7,11,0.167
7,12,0.0997
7,13,0.0455
7,14,0
8,9,0.146
8,10,0.1436
8,11,0.1169
8,12,0.0762
8,13,0.0291
8,14,0
9,10,0.0752
9,11,0.0697
9,12,0.051
9,13,0.0237
9,14,0
10,11,0.0304
10,12,0.0305
10,13,0.0172
10,14,0
11,12,0.0081
11,13,0.0087
11,14,0
12,13,0
12,14,0
13,14,0
