low1,low2,low3,Cards in suit,Pr(safe side suit)
2,3,4,3,1
2,3,4,4,1
2,3,4,5,1
2,3,4,6,1
2,3,4,7,0.8551
2,3,4,8,0.5913
2,3,4,9,0.2932
2,3,4,10,0.0921
2,3,4,11,0
2,3,4,12,0
2,3,4,13,0
2,3,5,3,1
2,3,5,4,1
2,3,5,5,1
2,3,5,6,1
2,3,5,7,0.8537
2,3,5,8,0.6012
2,3,5,9,0.2971
2,3,5,10,0.0945
2,3,5,11,0
2,3,5,12,0
2,3,6,3,1
2,3,6,4,1
2,3,6,5,1
2,3,6,6,1
2,3,6,7,0.8556
2,3,6,8,0.5882
2,3,6,9,0.2996
2,3,6,10,0.0928
2,3,6,11,0
2,3,7,3,0.9863
2,3,7,4,0.9703
2,3,7,5,0.9577
2,3,7,6,0.9275
2,3,7,7,0.7702
2,3,7,8,0.4897
2,3,7,9,0.2021
2,3,7,10,0
2,3,8,3,0.965
2,3,8,4,0.9225
2,3,8,5,0.8653
2,3,8,6,0.7827
2,3,8,7,0.5792
2,3,8,8,0.2885
2,3,8,9,0
2,3,9,3,0.9471
2,3,9,4,0.879
2,3,9,5,0.7605
2,3,9,6,0.6077
2,3,9,7,0.3462
2,3,9,8,0
2,3,10,3,0.8695
2,3,10,4,0.769
2,3,10,5,0.6104
2,3,10,6,0.3621
2,3,10,7,0
2,3,11,3,0.7155
2,3,11,4,0.5765
2,3,11,5,0.34
2,3,11,6,0
2,3,12,3,0.5251
2,3,12,4,0.3193
2,3,12,5,0
2,3,13,3,0.2666
2,3,13,4,0
2,3,14,3,0
2,4,5,3,1
2,4,5,4,1
2,4,5,5,1
2,4,5,6,1
2,4,5,7,0.8563
2,4,5,8,0.5926
2,4,5,9,0.2932
2,4,5,10,0.0965
2,4,5,11,0
2,4,5,12,0
2,4,6,3,1
2,4,6,4,1
2,4,6,5,1
2,4,6,6,1
2,4,6,7,0.8555
2,4,6,8,0.5862
2,4,6,9,0.2971
2,4,6,10,0.0965
2,4,6,11,0
2,4,7,3,0.9867
2,4,7,4,0.9716
2,4,7,5,0.9512
2,4,7,6,0.9341
2,4,7,7,0.7692
2,4,7,8,0.5009
2,4,7,9,0.2046
2,4,7,10,0
2,4,8,3,0.9664
2,4,8,4,0.924
2,4,8,5,0.8624
2,4,8,6,0.7915
2,4,8,7,0.5784
2,4,8,8,0.2862
2,4,8,9,0
2,4,9,3,0.945
2,4,9,4,0.8763
2,4,9,5,0.7664
2,4,9,6,0.6207
2,4,9,7,0.3423
2,4,9,8,0
2,4,10,3,0.868
2,4,10,4,0.7684
2,4,10,5,0.5995
2,4,10,6,0.36
2,4,10,7,0
2,4,11,3,0.7193
2,4,11,4,0.5701
2,4,11,5,0.3446
2,4,11,6,0
2,4,12,3,0.5202
2,4,12,4,0.3076
2,4,12,5,0
2,4,13,3,0.2615
2,4,13,4,0
2,4,14,3,0
2,5,6,3,0.9993
2,5,6,4,0.9977
2,5,6,5,0.9917
2,5,6,6,0.9724
2,5,6,7,0.7928
2,5,6,8,0.4393
2,5,6,9,0.1367
2,5,6,10,0
2,5,6,11,0
2,5,7,3,0.9868
2,5,7,4,0.9686
2,5,7,5,0.95
2,5,7,6,0.9207
2,5,7,7,0.7434
2,5,7,8,0.4206
2,5,7,9,0.1361
2,5,7,10,0
2,5,8,3,0.9647
2,5,8,4,0.9236
2,5,8,5,0.8627
2,5,8,6,0.7877
2,5,8,7,0.5911
2,5,8,8,0.2596
2,5,8,9,0
2,5,9,3,0.9464
2,5,9,4,0.8722
2,5,9,5,0.7633
2,5,9,6,0.6094
2,5,9,7,0.3404
2,5,9,8,0
2,5,10,3,0.8718
2,5,10,4,0.7686
2,5,10,5,0.6053
2,5,10,6,0.3587
2,5,10,7,0
2,5,11,3,0.7138
2,5,11,4,0.5787
2,5,11,5,0.3421
2,5,11,6,0
2,5,12,3,0.5177
2,5,12,4,0.3118
2,5,12,5,0
2,5,13,3,0.2691
2,5,13,4,0
2,5,14,3,0
2,6,7,3,0.9866
2,6,7,4,0.9681
2,6,7,5,0.9454
2,6,7,6,0.901
2,6,7,7,0.684
2,6,7,8,0.2837
2,6,7,9,0
2,6,7,10,0
2,6,8,3,0.9683
2,6,8,4,0.9241
2,6,8,5,0.8599
2,6,8,6,0.7819
2,6,8,7,0.5693
2,6,8,8,0.2086
2,6,8,9,0
2,6,9,3,0.9461
2,6,9,4,0.8754
2,6,9,5,0.7659
2,6,9,6,0.609
2,6,9,7,0.3426
2,6,9,8,0
2,6,10,3,0.8749
2,6,10,4,0.7737
2,6,10,5,0.6035
2,6,10,6,0.35
2,6,10,7,0
2,6,11,3,0.7188
2,6,11,4,0.5615
2,6,11,5,0.3379
2,6,11,6,0
2,6,12,3,0.5251
2,6,12,4,0.3126
2,6,12,5,0
2,6,13,3,0.2649
2,6,13,4,0
2,6,14,3,0
2,7,8,3,0.9072
2,7,8,4,0.8428
2,7,8,5,0.7434
2,7,8,6,0.6251
2,7,8,7,0.3483
2,7,8,8,0
2,7,8,9,0
2,7,9,3,0.8879
2,7,9,4,0.8035
2,7,9,5,0.6524
2,7,9,6,0.4946
2,7,9,7,0.245
2,7,9,8,0
2,7,10,3,0.8346
2,7,10,4,0.7243
2,7,10,5,0.5511
2,7,10,6,0.3091
2,7,10,7,0
2,7,11,3,0.6986
2,7,11,4,0.5473
2,7,11,5,0.3158
2,7,11,6,0
2,7,12,3,0.514
2,7,12,4,0.3032
2,7,12,5,0
2,7,13,3,0.263
2,7,13,4,0
2,7,14,3,0
2,8,9,3,0.8235
2,8,9,4,0.699
2,8,9,5,0.5283
2,8,9,6,0.3191
2,8,9,7,0
2,8,9,8,0
2,8,10,3,0.7929
2,8,10,4,0.6533
2,8,10,5,0.4458
2,8,10,6,0.2161
2,8,10,7,0
2,8,11,3,0.6749
2,8,11,4,0.5151
2,8,11,5,0.289
2,8,11,6,0
2,8,12,3,0.5166
2,8,12,4,0.2848
2,8,12,5,0
2,8,13,3,0.2604
2,8,13,4,0
2,8,14,3,0
2,9,10,3,0.6008
2,9,10,4,0.4545
2,9,10,5,0.2284
2,9,10,6,0
2,9,10,7,0
2,9,11,3,0.5278
2,9,11,4,0.3649
2,9,11,5,0.1676
2,9,11,6,0
2,9,12,3,0.3963
2,9,12,4,0.2131
2,9,12,5,0
2,9,13,3,0.2185
2,9,13,4,0
2,9,14,3,0
2,10,11,3,0.297
2,10,11,4,0.1491
2,10,11,5,0
2,10,11,6,0
2,10,12,3,0.2491
2,10,12,4,0.1137
2,10,12,5,0
2,10,13,3,0.1501
2,10,13,4,0
2,10,14,3,0
2,11,12,3,0.0962
2,11,12,4,0
2,11,12,5,0
2,11,13,3,0.0769
2,11,13,4,0
2,11,14,3,0
2,12,13,3,0
2,12,13,4,0
2,12,14,3,0
2,13,14,3,0
3,4,5,3,1
3,4,5,4,1
3,4,5,5,1
3,4,5,6,0.9998
3,4,5,7,0.852
3,4,5,8,0.5846
3,4,5,9,0.2714
3,4,5,10,0
3,4,5,11,0
3,4,5,12,0
3,4,6,3,1
3,4,6,4,1
3,4,6,5,0.9999
3,4,6,6,0.9995
3,4,6,7,0.8542
3,4,6,8,0.5823
3,4,6,9,0.2734
3,4,6,10,0
3,4,6,11,0
3,4,7,3,0.9855
3,4,7,4,0.9691
3,4,7,5,0.9534
3,4,7,6,0.9296
3,4,7,7,0.7668
3,4,7,8,0.4882
3,4,7,9,0.1964
3,4,7,10,0
3,4,8,3,0.9665
3,4,8,4,0.9285
3,4,8,5,0.8588
3,4,8,6,0.7857
3,4,8,7,0.5919
3,4,8,8,0.294
3,4,8,9,0
3,4,9,3,0.9463
3,4,9,4,0.8788
3,4,9,5,0.7624
3,4,9,6,0.6076
3,4,9,7,0.3379
3,4,9,8,0
3,4,10,3,0.8674
3,4,10,4,0.7775
3,4,10,5,0.6007
3,4,10,6,0.3583
3,4,10,7,0
3,4,11,3,0.7136
3,4,11,4,0.5723
3,4,11,5,0.3367
3,4,11,6,0
3,4,12,3,0.5193
3,4,12,4,0.3071
3,4,12,5,0
3,4,13,3,0.2662
3,4,13,4,0
3,4,14,3,0
3,5,6,3,0.9991
3,5,6,4,0.9967
3,5,6,5,0.9905
3,5,6,6,0.9738
3,5,6,7,0.7928
3,5,6,8,0.4445
3,5,6,9,0.1347
3,5,6,10,0
3,5,6,11,0
3,5,7,3,0.987
3,5,7,4,0.971
3,5,7,5,0.9485
3,5,7,6,0.918
3,5,7,7,0.7442
3,5,7,8,0.42
3,5,7,9,0.1395
3,5,7,10,0
3,5,8,3,0.9659
3,5,8,4,0.9242
3,5,8,5,0.8609
3,5,8,6,0.7861
3,5,8,7,0.5823
3,5,8,8,0.2618
3,5,8,9,0
3,5,9,3,0.9469
3,5,9,4,0.8809
3,5,9,5,0.7661
3,5,9,6,0.619
3,5,9,7,0.3507
3,5,9,8,0
3,5,10,3,0.871
3,5,10,4,0.7764
3,5,10,5,0.6044
3,5,10,6,0.3581
3,5,10,7,0
3,5,11,3,0.7257
3,5,11,4,0.5738
3,5,11,5,0.3455
3,5,11,6,0
3,5,12,3,0.5224
3,5,12,4,0.3113
3,5,12,5,0
3,5,13,3,0.2629
3,5,13,4,0
3,5,14,3,0
3,6,7,3,0.9852
3,6,7,4,0.9668
3,6,7,5,0.9454
3,6,7,6,0.9011
3,6,7,7,0.6838
3,6,7,8,0.2881
3,6,7,9,0
3,6,7,10,0
3,6,8,3,0.9645
3,6,8,4,0.9264
3,6,8,5,0.855
3,6,8,6,0.7825
3,6,8,7,0.555
3,6,8,8,0.2195
3,6,8,9,0
3,6,9,3,0.9469
3,6,9,4,0.8777
3,6,9,5,0.7653
3,6,9,6,0.6142
3,6,9,7,0.3408
3,6,9,8,0
3,6,10,3,0.8729
3,6,10,4,0.7779
3,6,10,5,0.6139
3,6,10,6,0.3499
3,6,10,7,0
3,6,11,3,0.7174
3,6,11,4,0.5727
3,6,11,5,0.3435
3,6,11,6,0
3,6,12,3,0.53
3,6,12,4,0.3053
3,6,12,5,0
3,6,13,3,0.2673
3,6,13,4,0
3,6,14,3,0
3,7,8,3,0.9086
3,7,8,4,0.846
3,7,8,5,0.7441
3,7,8,6,0.6303
3,7,8,7,0.3518
3,7,8,8,0
3,7,8,9,0
3,7,9,3,0.8925
3,7,9,4,0.8018
3,7,9,5,0.6589
3,7,9,6,0.5029
3,7,9,7,0.2481
3,7,9,8,0
3,7,10,3,0.8362
3,7,10,4,0.719
3,7,10,5,0.5443
3,7,10,6,0.2994
3,7,10,7,0
3,7,11,3,0.6977
3,7,11,4,0.5527
3,7,11,5,0.3129
3,7,11,6,0
3,7,12,3,0.5099
3,7,12,4,0.3054
3,7,12,5,0
3,7,13,3,0.2637
3,7,13,4,0
3,7,14,3,0
3,8,9,3,0.8339
3,8,9,4,0.7025
3,8,9,5,0.5217
3,8,9,6,0.3149
3,8,9,7,0
3,8,9,8,0
3,8,10,3,0.7923
3,8,10,4,0.6573
3,8,10,5,0.4497
3,8,10,6,0.2197
3,8,10,7,0
3,8,11,3,0.6774
3,8,11,4,0.5209
3,8,11,5,0.292
3,8,11,6,0
3,8,12,3,0.5036
3,8,12,4,0.2882
3,8,12,5,0
3,8,13,3,0.2586
3,8,13,4,0
3,8,14,3,0
3,9,10,3,0.6085
3,9,10,4,0.4553
3,9,10,5,0.231
3,9,10,6,0
3,9,10,7,0
3,9,11,3,0.5186
3,9,11,4,0.3583
3,9,11,5,0.1665
3,9,11,6,0
3,9,12,3,0.3967
3,9,12,4,0.2247
3,9,12,5,0
3,9,13,3,0.211
3,9,13,4,0
3,9,14,3,0
3,10,11,3,0.2967
3,10,11,4,0.1552
3,10,11,5,0
3,10,11,6,0
3,10,12,3,0.2478
3,10,12,4,0.1156
3,10,12,5,0
3,10,13,3,0.1499
3,10,13,4,0
3,10,14,3,0
3,11,12,3,0.0924
3,11,12,4,0
3,11,12,5,0
3,11,13,3,0.0778
3,11,13,4,0
3,11,14,3,0
3,12,13,3,0
3,12,13,4,0
3,12,14,3,0
3,13,14,3,0
4,5,6,3,0.9885
4,5,6,4,0.9724
4,5,6,5,0.9531
4,5,6,6,0.91
4,5,6,7,0.6789
4,5,6,8,0.2657
4,5,6,9,0
4,5,6,10,0
4,5,6,11,0
4,5,7,3,0.9736
4,5,7,4,0.9521
4,5,7,5,0.9081
4,5,7,6,0.8513
4,5,7,7,0.6259
4,5,7,8,0.2543
4,5,7,9,0
4,5,7,10,0
4,5,8,3,0.9525
4,5,8,4,0.9045
4,5,8,5,0.8283
4,5,8,6,0.7305
4,5,8,7,0.5071
4,5,8,8,0.1723
4,5,8,9,0
4,5,9,3,0.9275
4,5,9,4,0.8586
4,5,9,5,0.7186
4,5,9,6,0.5683
4,5,9,7,0.3054
4,5,9,8,0
4,5,10,3,0.8661
4,5,10,4,0.7562
4,5,10,5,0.5871
4,5,10,6,0.3359
4,5,10,7,0
4,5,11,3,0.7084
4,5,11,4,0.5642
4,5,11,5,0.3364
4,5,11,6,0
4,5,12,3,0.5187
4,5,12,4,0.3101
4,5,12,5,0
4,5,13,3,0.2668
4,5,13,4,0
4,5,14,3,0
4,6,7,3,0.9741
4,6,7,4,0.9482
4,6,7,5,0.9099
4,6,7,6,0.8419
4,6,7,7,0.5904
4,6,7,8,0.1425
4,6,7,9,0
4,6,7,10,0
4,6,8,3,0.9496
4,6,8,4,0.9019
4,6,8,5,0.8234
4,6,8,6,0.7289
4,6,8,7,0.4943
4,6,8,8,0.1193
4,6,8,9,0
4,6,9,3,0.9339
4,6,9,4,0.8523
4,6,9,5,0.734
4,6,9,6,0.5684
4,6,9,7,0.3017
4,6,9,8,0
4,6,10,3,0.8606
4,6,10,4,0.7638
4,6,10,5,0.583
4,6,10,6,0.3398
4,6,10,7,0
4,6,11,3,0.7043
4,6,11,4,0.5627
4,6,11,5,0.3319
4,6,11,6,0
4,6,12,3,0.5222
4,6,12,4,0.3122
4,6,12,5,0
4,6,13,3,0.2655
4,6,13,4,0
4,6,14,3,0
4,7,8,3,0.9052
4,7,8,4,0.8315
4,7,8,5,0.7253
4,7,8,6,0.6058
4,7,8,7,0.3382
4,7,8,8,0
4,7,8,9,0
4,7,9,3,0.8782
4,7,9,4,0.7955
4,7,9,5,0.6416
4,7,9,6,0.4896
4,7,9,7,0.2209
4,7,9,8,0
4,7,10,3,0.8399
4,7,10,4,0.7175
4,7,10,5,0.5362
4,7,10,6,0.3045
4,7,10,7,0
4,7,11,3,0.7034
4,7,11,4,0.5464
4,7,11,5,0.317
4,7,11,6,0
4,7,12,3,0.5172
4,7,12,4,0.3011
4,7,12,5,0
4,7,13,3,0.2624
4,7,13,4,0
4,7,14,3,0
4,8,9,3,0.8249
4,8,9,4,0.7009
4,8,9,5,0.5181
4,8,9,6,0.3034
4,8,9,7,0
4,8,9,8,0
4,8,10,3,0.7891
4,8,10,4,0.6496
4,8,10,5,0.4398
4,8,10,6,0.2144
4,8,10,7,0
4,8,11,3,0.6653
4,8,11,4,0.509
4,8,11,5,0.286
4,8,11,6,0
4,8,12,3,0.5029
4,8,12,4,0.3059
4,8,12,5,0
4,8,13,3,0.2561
4,8,13,4,0
4,8,14,3,0
4,9,10,3,0.6039
4,9,10,4,0.4527
4,9,10,5,0.2213
4,9,10,6,0
4,9,10,7,0
4,9,11,3,0.508
4,9,11,4,0.3528
4,9,11,5,0.1647
4,9,11,6,0
4,9,12,3,0.3917
4,9,12,4,0.2219
4,9,12,5,0
4,9,13,3,0.2106
4,9,13,4,0
4,9,14,3,0
4,10,11,3,0.3036
4,10,11,4,0.1551
4,10,11,5,0
4,10,11,6,0
4,10,12,3,0.245
4,10,12,4,0.1118
4,10,12,5,0
4,10,13,3,0.1469
4,10,13,4,0
4,10,14,3,0
4,11,12,3,0.0869
4,11,12,4,0
4,11,12,5,0
4,11,13,3,0.0751
4,11,13,4,0
4,11,14,3,0
4,12,13,3,0
4,12,13,4,0
4,12,14,3,0
4,13,14,3,0
5,6,7,3,0.7294
5,6,7,4,0.6957
5,6,7,5,0.6446
5,6,7,6,0.5721
5,6,7,7,0.3458
5,6,7,8,0
5,6,7,9,0
5,6,7,10,0
5,6,8,3,0.7002
5,6,8,4,0.6483
5,6,8,5,0.5598
5,6,8,6,0.464
5,6,8,7,0.2731
5,6,8,8,0
5,6,8,9,0
5,6,9,3,0.6994
5,6,9,4,0.6105
5,6,9,5,0.4988
5,6,9,6,0.355
5,6,9,7,0.1686
5,6,9,8,0
5,6,10,3,0.6277
5,6,10,4,0.544
5,6,10,5,0.4012
5,6,10,6,0.2215
5,6,10,7,0
5,6,11,3,0.5217
5,6,11,4,0.4073
5,6,11,5,0.2301
5,6,11,6,0
5,6,12,3,0.379
5,6,12,4,0.2188
5,6,12,5,0
5,6,13,3,0.1972
5,6,13,4,0
5,6,14,3,0
5,7,8,3,0.6608
5,7,8,4,0.5828
5,7,8,5,0.4815
5,7,8,6,0.354
5,7,8,7,0.1703
5,7,8,8,0
5,7,8,9,0
5,7,9,3,0.6514
5,7,9,4,0.5539
5,7,9,5,0.4343
5,7,9,6,0.2897
5,7,9,7,0.1164
5,7,9,8,0
5,7,10,3,0.5974
5,7,10,4,0.4988
5,7,10,5,0.3481
5,7,10,6,0.1827
5,7,10,7,0
5,7,11,3,0.4936
5,7,11,4,0.3873
5,7,11,5,0.2146
5,7,11,6,0
5,7,12,3,0.3698
5,7,12,4,0.2091
5,7,12,5,0
5,7,13,3,0.2036
5,7,13,4,0
5,7,14,3,0
5,8,9,3,0.6051
5,8,9,4,0.4891
5,8,9,5,0.3541
5,8,9,6,0.1951
5,8,9,7,0
5,8,9,8,0
5,8,10,3,0.5836
5,8,10,4,0.4514
5,8,10,5,0.3024
5,8,10,6,0.1296
5,8,10,7,0
5,8,11,3,0.4963
5,8,11,4,0.3688
5,8,11,5,0.1981
5,8,11,6,0
5,8,12,3,0.3628
5,8,12,4,0.209
5,8,12,5,0
5,8,13,3,0.1959
5,8,13,4,0
5,8,14,3,0
5,9,10,3,0.4583
5,9,10,4,0.3283
5,9,10,5,0.1578
5,9,10,6,0
5,9,10,7,0
5,9,11,3,0.3868
5,9,11,4,0.2632
5,9,11,5,0.1152
5,9,11,6,0
5,9,12,3,0.2979
5,9,12,4,0.1621
5,9,12,5,0
5,9,13,3,0.1695
5,9,13,4,0
5,9,14,3,0
5,10,11,3,0.2469
5,10,11,4,0.1171
5,10,11,5,0
5,10,11,6,0
5,10,12,3,0.1945
5,10,12,4,0.0858
5,10,12,5,0
5,10,13,3,0.1163
5,10,13,4,0
5,10,14,3,0
5,11,12,3,0.0756
5,11,12,4,0
5,11,12,5,0
5,11,13,3,0.0579
5,11,13,4,0
5,11,14,3,0
5,12,13,3,0
5,12,13,4,0
5,12,14,3,0
5,13,14,3,0
6,7,8,3,0.4126
6,7,8,4,0.3361
6,7,8,5,0.2307
6,7,8,6,0.1142
6,7,8,7,0
6,7,8,8,0
6,7,8,9,0
6,7,9,3,0.4088
6,7,9,4,0.3209
6,7,9,5,0.2169
6,7,9,6,0.0963
6,7,9,7,0
6,7,9,8,0
6,7,10,3,0.3683
6,7,10,4,0.2958
6,7,10,5,0.1804
6,7,10,6,0.0666
6,7,10,7,0
6,7,11,3,0.3179
6,7,11,4,0.225
6,7,11,5,0.1143
6,7,11,6,0
6,7,12,3,0.2268
6,7,12,4,0.128
6,7,12,5,0
6,7,13,3,0.1251
6,7,13,4,0
6,7,14,3,0
6,8,9,3,0.3935
6,8,9,4,0.3017
6,8,9,5,0.1824
6,8,9,6,0.0714
6,8,9,7,0
6,8,9,8,0
6,8,10,3,0.3575
6,8,10,4,0.2713
6,8,10,5,0.1683
6,8,10,6,0.0555
6,8,10,7,0
6,8,11,3,0.3004
6,8,11,4,0.2189
6,8,11,5,0.1037
6,8,11,6,0
6,8,12,3,0.2282
6,8,12,4,0.1222
6,8,12,5,0
6,8,13,3,0.1202
6,8,13,4,0
6,8,14,3,0
6,9,10,3,0.3075
6,9,10,4,0.217
6,9,10,5,0.1
6,9,10,6,0
6,9,10,7,0
6,9,11,3,0.2577
6,9,11,4,0.1769
6,9,11,5,0.0701
6,9,11,6,0
6,9,12,3,0.2034
6,9,12,4,0.1019
6,9,12,5,0
6,9,13,3,0.1155
6,9,13,4,0
6,9,14,3,0
6,10,11,3,0.173
6,10,11,4,0.0855
6,10,11,5,0
6,10,11,6,0
6,10,12,3,0.1422
6,10,12,4,0.0637
6,10,12,5,0
6,10,13,3,0.0837
6,10,13,4,0
6,10,14,3,0
6,11,12,3,0.0587
6,11,12,4,0
6,11,12,5,0
6,11,13,3,0.0475
6,11,13,4,0
6,11,14,3,0
6,12,13,3,0
6,12,13,4,0
6,12,14,3,0
6,13,14,3,0
7,8,9,3,0.2159
7,8,9,4,0.1469
7,8,9,5,0.0659
7,8,9,6,0
7,8,9,7,0
7,8,9,8,0
7,8,10,3,0.1877
7,8,10,4,0.1272
7,8,10,5,0.0522
7,8,10,6,0
7,8,10,7,0
7,8,11,3,0.1572
7,8,11,4,0.1066
7,8,11,5,0.0368
7,8,11,6,0
7,8,12,3,0.1241
7,8,12,4,0.06
7,8,12,5,0
7,8,13,3,0.0684
7,8,13,4,0
7,8,14,3,0
7,9,10,3,0.1814
7,9,10,4,0.1169
7,9,10,5,0.0418
7,9,10,6,0
7,9,10,7,0
7,9,11,3,0.1507
7,9,11,4,0.1003
7,9,11,5,0.0314
7,9,11,6,0
7,9,12,3,0.1173
7,9,12,4,0.0592
7,9,12,5,0
7,9,13,3,0.0721
7,9,13,4,0
7,9,14,3,0
7,10,11,3,0.1084
7,10,11,4,0.0499
7,10,11,5,0
7,10,11,6,0
7,10,12,3,0.0895
7,10,12,4,0.0397
7,10,12,5,0
7,10,13,3,0.0552
7,10,13,4,0
7,10,14,3,0
7,11,12,3,0.0436
7,11,12,4,0
7,11,12,5,0
7,11,13,3,0.0317
7,11,13,4,0
7,11,14,3,0
7,12,13,3,0
7,12,13,4,0
7,12,14,3,0
7,13,14,3,0
8,9,10,3,0.0702
8,9,10,4,0.0333
8,9,10,5,0
8,9,10,6,0
8,9,10,7,0
8,9,11,3,0.0599
8,9,11,4,0.0258
8,9,11,5,0
8,9,11,6,0
8,9,12,3,0.0566
8,9,12,4,0.019
8,9,12,5,0
8,9,13,3,0.0359
8,9,13,4,0
8,9,14,3,0
8,10,11,3,0.0566
8,10,11,4,0.0268
8,10,11,5,0
8,10,11,6,0
8,10,12,3,0.0509
8,10,12,4,0.0191
8,10,12,5,0
8,10,13,3,0.0342
8,10,13,4,0
8,10,14,3,0
8,11,12,3,0.0279
8,11,12,4,0
8,11,12,5,0
8,11,13,3,0.0218
8,11,13,4,0
8,11,14,3,0
8,12,13,3,0
8,12,13,4,0
8,12,14,3,0
8,13,14,3,0
9,10,11,3,0.0154
9,10,11,4,0
9,10,11,5,0
9,10,11,6,0
9,10,12,3,0.0129
9,10,12,4,0
9,10,12,5,0
9,10,13,3,0.0133
9,10,13,4,0
9,10,14,3,0
9,11,12,3,0.0112
9,11,12,4,0
9,11,12,5,0
9,11,13,3,0.009
9,11,13,4,0
9,11,14,3,0
9,12,13,3,0
9,12,13,4,0
9,12,14,3,0
9,13,14,3,0
10,11,12,3,0
10,11,12,4,0
10,11,12,5,0
10,11,13,3,0
10,11,13,4,0
10,11,14,3,0
10,12,13,3,0
10,12,13,4,0
10,12,14,3,0
10,13,14,3,0
11,12,13,3,0
11,12,13,4,0
11,12,14,3,0
11,13,14,3,0
12,13,14,3,0
