%YAML 1.1
%TAG !u! tag:unity3d.com,2011:
--- !u!114 &11400000
MonoBehaviour:
  m_ObjectHideFlags: 0
  m_PrefabParentObject: {fileID: 0}
  m_PrefabInternal: {fileID: 0}
  m_GameObject: {fileID: 0}
  m_Enabled: 1
  m_EditorHideFlags: 0
  m_Script: {fileID: 11500000, guid: 4ddd362ebdb1e01478db3d977e1711fd, type: 3}
  m_Name: EmojiMessage_cry
  m_EditorClassIdentifier: 
  MessageId: 1
  m_emoji: {fileID: 21300000, guid: 777a2631d9122ba4db93577010fe9180, type: 3}
