%YAML 1.1
%TAG !u! tag:unity3d.com,2011:
--- !u!114 &11400000
MonoBehaviour:
  m_ObjectHideFlags: 0
  m_PrefabParentObject: {fileID: 0}
  m_PrefabInternal: {fileID: 0}
  m_GameObject: {fileID: 0}
  m_Enabled: 1
  m_EditorHideFlags: 0
  m_Script: {fileID: 11500000, guid: 4ddd362ebdb1e01478db3d977e1711fd, type: 3}
  m_Name: EmojiMessage_happy
  m_EditorClassIdentifier: 
  MessageId: 3
  m_emoji: {fileID: 21300000, guid: 8f5723934bcbe264ca82f9889e776aae, type: 3}
